{
  "authors": [
    "Christopho"
  ],
  "categories": [
    "Solarus"
  ],
  "creation_date": "2013-10-13",
  "excerpt": "The new version of Solarus is available now!\r\n\r\nThe main change of Solarus 1.1 is that there are no more hardcoded menus in the engine: the dialog....",
  "id": "2013-10-13-solarus-1-1-released",
  "image_thumbnail": "../../../../../assets/blog/default_article_thumbnail.jpg",
  "page_override": {
    "meta_description": "",
    "meta_image": "../../../../../assets/images/meta_image_fallback.jpg",
    "meta_title": "Solarus 1.1 released!",
    "parent": "news",
    "slug": "news/2013-10-13-solarus-1-1-released",
    "title": "Solarus 1.1 released!"
  },
  "page_slug": "news/2013-10-13-solarus-1-1-released",
  "publish": true,
  "title": "Solarus 1.1 released!"
}