{
  "authors": [
    "Christopho"
  ],
  "categories": [
    "Solarus"
  ],
  "creation_date": "2003-01-03",
  "excerpt": "Le samedi 25 janvier à 21 h (15 h heure québécoise), nous organiserons un concours sur le chat de Zelda Solarus. Ce concours consistera en un....",
  "id": "2003-01-03-grand-concours-une-demo-de-zap-a-gagner",
  "image_thumbnail": "../../../../../assets/blog/default_article_thumbnail.jpg",
  "page_override": {
    "meta_description": "",
    "meta_image": "../../../../../assets/images/meta_image_fallback.jpg",
    "meta_title": "Grand concours : une démo de ZAP à gagner !",
    "parent": "news",
    "slug": "news/2003-01-03-grand-concours-une-demo-de-zap-a-gagner",
    "title": "Grand concours : une démo de ZAP à gagner !"
  },
  "page_slug": "news/2003-01-03-grand-concours-une-demo-de-zap-a-gagner",
  "publish": true,
  "title": "Grand concours : une démo de ZAP à gagner !"
}