{
  "excerpt": "Migration guide from Solarus 1.0 to Solarus 1.1.",
  "id": "book-chapter-solarus-official-guide-migration-from-v1.0-to-v1.1",
  "image_thumbnail": "images/thumbnail.png",
  "index": 1,
  "origin_tree": "development/tutorials/solarus-official-guide",
  "page_override": {
    "meta_description": "Migration guide from Solarus 1.0 to Solarus 1.1.",
    "meta_image": "../../../../book/tutorial/solarus-official-guide/images/thumbnail.png",
    "meta_title": "From v1.0 to v1.1",
    "parent": "development/tutorials/solarus-official-guide/migration",
    "slug": "development/tutorials/solarus-official-guide/migration/from-v1-0-to-v1-1",
    "title": "From v1.0 to v1.1"
  },
  "page_slug": "development/tutorials/solarus-official-guide/migration/from-v1-0-to-v1-1",
  "publish": true,
  "title": "From v1.0 to v1.1"
}
