{
  "authors": [
    "Christopho"
  ],
  "categories": [
    "Solarus"
  ],
  "creation_date": "2017-08-14",
  "excerpt": "Cet été, toute la Solarus Team travaille d'arrache-pied sur de nombreux projets en parallèle. Zelda Mercuris' Chest est celui dont on vous parle....",
  "id": "2017-08-14-les-screenshots-pas-de-la-semaine",
  "image_thumbnail": "../../../../../assets/blog/default_article_thumbnail.jpg",
  "page_override": {
    "meta_description": "",
    "meta_image": "../../../../../assets/images/meta_image_fallback.jpg",
    "meta_title": "Les screenshots pas de la semaine",
    "parent": "news",
    "slug": "news/2017-08-14-les-screenshots-pas-de-la-semaine",
    "title": "Les screenshots pas de la semaine"
  },
  "page_slug": "news/2017-08-14-les-screenshots-pas-de-la-semaine",
  "publish": true,
  "title": "Les screenshots pas de la semaine"
}