{
  "downloads": {
    "player": [
      {
        "file": "https://gitlab.com/solarus-games/solarus/-/jobs/artifacts/v1.6.4/raw/solarus-player-x64-v1.6.4.zip?job=mingw-x64-package",
        "label": "Windows",
        "platform": "Windows",
        "content": "player/windows.md",
        "version": "1.6.4"
      },
      {
        "file": "http://www.solarus-games.org/downloads/solarus/macosx/solarus-player-1.6.4-macosx64.zip",
        "label": "macOS",
        "platform": "macOS",
        "content": "player/macos.md",
        "version": "1.6.4"
      },
      {
        "file": "",
        "label": "Ubuntu",
        "platform": "Ubuntu",
        "content": "player/ubuntu.md",
        "version": "1.6.4"
      },
      {
        "file": "",
        "label": "Raspberry Pi",
        "platform": "Raspberry Pi",
        "content": "player/raspberry-pi.md",
        "version": "1.6.4"
      }
    ],
    "quest-maker": [
      {
        "file": "https://gitlab.com/solarus-games/solarus-quest-editor/-/jobs/artifacts/v1.6.4/raw/solarus-x64-v1.6.4.zip?job=mingw-x64-package",
        "label": "Windows",
        "platform": "Windows",
        "content": "quest-maker/windows.md",
        "version": "1.6.4"
      },
      {
        "file": "http://www.solarus-games.org/downloads/solarus/macosx/solarus-1.6.4-macosx64.zip",
        "label": "macOS",
        "platform": "macOS",
        "content": "quest-maker/macos.md",
        "version": "1.6.4"
      },
      {
        "file": "",
        "label": "Ubuntu",
        "platform": "Ubuntu",
        "content": "quest-maker/ubuntu.md",
        "version": "1.6.4"
      }
    ]
  }
}
