{
  "authors": [
    "Christopho"
  ],
  "categories": [
    "Solarus"
  ],
  "creation_date": "2001-11-18",
  "excerpt": "     Le temple des souvenirs, c'est un temple magique suspendu au dessus du vide ! Il ne demeure pas en Hyrule mais dans un autre monde... Ce....",
  "id": "2001-11-18-info-exclusive",
  "image_thumbnail": "../../../../../assets/blog/default_article_thumbnail.jpg",
  "page_override": {
    "meta_description": "",
    "meta_image": "../../../../../assets/images/meta_image_fallback.jpg",
    "meta_title": "INFO EXCLUSIVE !!!",
    "parent": "news",
    "slug": "news/2001-11-18-info-exclusive",
    "title": "INFO EXCLUSIVE !!!"
  },
  "page_slug": "news/2001-11-18-info-exclusive",
  "publish": true,
  "title": "INFO EXCLUSIVE !!!"
}