{
  "has_breadcrumb": true,
  "meta_description": "Contact the team behind the Solarus game engine project.",
  "meta_image": "../../../assets/images/meta_image_fallback.jpg",
  "meta_title": "Contact",
  "parent": "about",
  "publish": true,
  "slug": "about/contact",
  "title": "Contact"
}