{
  "has_breadcrumb": true,
  "meta_description": "The people behind the Solarus game engine project.",
  "meta_image": "../../../assets/images/meta_image_fallback.jpg",
  "meta_title": "Contributors",
  "parent": "about",
  "publish": true,
  "slug": "about/contributors",
  "title": "Contributors"
}