{
  "authors": [
    "Christopho"
  ],
  "categories": [
    "Solarus"
  ],
  "creation_date": "2014-05-06",
  "excerpt": "Après plusieurs mois de développement, et malgré un temps significatif passé à jouer à 2048, la nouvelle version du moteur Solarus est....",
  "id": "2014-05-06-solarus-1-2-disponible-zsxd-en-espagnol",
  "image_thumbnail": "../../../../../assets/blog/default_article_thumbnail.jpg",
  "page_override": {
    "meta_description": "",
    "meta_image": "../../../../../assets/images/meta_image_fallback.jpg",
    "meta_title": "Solarus 1.2 disponible, ZSXD en espagnol",
    "parent": "news",
    "slug": "news/2014-05-06-solarus-1-2-disponible-zsxd-en-espagnol",
    "title": "Solarus 1.2 disponible, ZSXD en espagnol"
  },
  "page_slug": "news/2014-05-06-solarus-1-2-disponible-zsxd-en-espagnol",
  "publish": true,
  "title": "Solarus 1.2 disponible, ZSXD en espagnol"
}