{
  "authors": [
    "Olivier Cléro"
  ],
  "categories": [
    "Solarus",
    "Solarus Labs"
  ],
  "creation_date": "2020-04-01",
  "excerpt": "Support Solarus by buying official Solarus clothing on Spreadshirt.",
  "id": "article-2020-04-01-goodies-shop",
  "image_thumbnail": "images/cover.jpg",
  "page_override": {
    "meta_description": "Support Solarus by buying official Solarus clothing on Spreadshirt.",
    "meta_image": "images/cover.jpg",
    "meta_title": "You can now shop Solarus goodies!",
    "parent": "news",
    "slug": "news/2020-04-01-goodies-shop",
    "title": "You can now shop Solarus goodies!"
  },
  "page_slug": "news/2020-04-01-goodies-shop",
  "publish": true,
  "title": "You can now shop Solarus goodies!"
}