{
  "delegate_entity_type": "book",
  "has_breadcrumb": true,
  "meta_description": "Book page.",
  "meta_image": "../../../assets/images/meta_image_fallback.jpg",
  "meta_title": "Tutorial page",
  "parent": "development/tutorials",
  "title": "Book",
  "publish": true
}