{
  "excerpt": "How to make a shop without any scripting, by using the shop treasure entity type.",
  "id": "book-chapter-solarus-video-tutorial-basics-shops",
  "index": 35,
  "origin_tree": "development/tutorials/solarus-video-tutorial",
  "page_override": {
    "meta_description": "How to make a shop without any scripting, by using the shop treasure entity type.",
    "meta_image": "../../../../book/tutorial/solarus-video-tutorial/images/thumbnail.png",
    "meta_title": "Shops",
    "parent": "development/tutorials/solarus-video-tutorial",
    "slug": "development/tutorials/solarus-video-tutorial/shops",
    "title": "Shops"
  },
  "page_slug": "development/tutorials/solarus-video-tutorial/shops",
  "publish": true,
  "title": "Shops"
}
