{
  "authors": [
    "Christopho"
  ],
  "categories": [
    "Solarus"
  ],
  "creation_date": "2009-11-10",
  "excerpt": "A 38 jours de la sortie de la démo de [url=http://www.zelda-solarus.com/jeu-zsdx]Zelda Mystery of Solarus DX[/url], je vous propose aujourd'hui d'en....",
  "id": "2009-11-10-lequipe-de-zelda-mystery-of-solarus-dx",
  "image_thumbnail": "../../../../../assets/blog/default_article_thumbnail.jpg",
  "page_override": {
    "meta_description": "",
    "meta_image": "../../../../../assets/images/meta_image_fallback.jpg",
    "meta_title": "L'équipe de Zelda Mystery of Solarus DX",
    "parent": "news",
    "slug": "news/2009-11-10-lequipe-de-zelda-mystery-of-solarus-dx",
    "title": "L'équipe de Zelda Mystery of Solarus DX"
  },
  "page_slug": "news/2009-11-10-lequipe-de-zelda-mystery-of-solarus-dx",
  "publish": true,
  "title": "L'équipe de Zelda Mystery of Solarus DX"
}