{
  "authors": [
    "Christopho"
  ],
  "categories": [
    "Solarus"
  ],
  "creation_date": "2006-03-19",
  "excerpt": "Voici une petite news pour vous tenir au courant du non avancement de notre projet Zelda : Mercuris' Chest. Je ne vais pas y aller par quatre....",
  "id": "2006-03-19-zelda-mercuris-chest-mauvaises-nouvelles",
  "image_thumbnail": "../../../../../assets/blog/default_article_thumbnail.jpg",
  "page_override": {
    "meta_description": "",
    "meta_image": "../../../../../assets/images/meta_image_fallback.jpg",
    "meta_title": "Zelda Mercuris' Chest : mauvaises nouvelles",
    "parent": "news",
    "slug": "news/2006-03-19-zelda-mercuris-chest-mauvaises-nouvelles",
    "title": "Zelda Mercuris' Chest : mauvaises nouvelles"
  },
  "page_slug": "news/2006-03-19-zelda-mercuris-chest-mauvaises-nouvelles",
  "publish": true,
  "title": "Zelda Mercuris' Chest : mauvaises nouvelles"
}