{
  "authors": [
    "Christopho"
  ],
  "categories": [
    "Solarus"
  ],
  "creation_date": "2001-08-20",
  "excerpt": "Une des grandes innovations de Zelda : Mystery of Solarus : le nouveau menu. Pour commencer, voici deux screenshots :\n\n     \n\nComme vous pouvez le....",
  "id": "2001-08-20-des-infos-sur-le-nouveau-menu",
  "image_thumbnail": "../../../../../assets/blog/default_article_thumbnail.jpg",
  "page_override": {
    "meta_description": "",
    "meta_image": "../../../../../assets/images/meta_image_fallback.jpg",
    "meta_title": "Des infos sur le nouveau menu",
    "parent": "news",
    "slug": "news/2001-08-20-des-infos-sur-le-nouveau-menu",
    "title": "Des infos sur le nouveau menu"
  },
  "page_slug": "news/2001-08-20-des-infos-sur-le-nouveau-menu",
  "publish": true,
  "title": "Des infos sur le nouveau menu"
}