{
  "authors": [
    "Christopho"
  ],
  "categories": [
    "Solarus"
  ],
  "creation_date": "2003-11-28",
  "excerpt": "Dimanche dernier a eu lieu un événement rare : la sortie d'un nouveau Zelda amateur en version complète ! Vous connaissez peut-être déjà....",
  "id": "2003-11-28-the-legend-of-zelda-attack-of-the-shadow",
  "image_thumbnail": "../../../../../assets/blog/default_article_thumbnail.jpg",
  "page_override": {
    "meta_description": "",
    "meta_image": "../../../../../assets/images/meta_image_fallback.jpg",
    "meta_title": "The legend of Zelda : Attack of the Shadow",
    "parent": "news",
    "slug": "news/2003-11-28-the-legend-of-zelda-attack-of-the-shadow",
    "title": "The legend of Zelda : Attack of the Shadow"
  },
  "page_slug": "news/2003-11-28-the-legend-of-zelda-attack-of-the-shadow",
  "publish": true,
  "title": "The legend of Zelda : Attack of the Shadow"
}