{
    "authors": [
      "Olivier Cléro"
    ],
    "categories": [
      "Resource Packs"
    ],
    "creation_date": "2019-08-14",
    "excerpt": "Tired of using A Link to the Past resources and seeing always the same tilsets and sprites?",
    "id": "2019-08-14-zelda-resource-packs-in-the-making",
    "image_thumbnail": "2019-08-14-zelda-resource-packs-in-the-making/cover.jpg",
    "page_override": {
      "meta_description": "Tired of using A Link to the Past resources and seeing always the same tilsets and sprites?",
      "meta_image": "../../../../../assets/images/meta_image_fallback.jpg",
      "meta_title": "New Zelda resource packs are in the making.",
      "parent": "news",
      "slug": "news/2019-08-14-zelda-resource-packs-in-the-making",
      "title": "New Zelda resource packs are in the making."
    },
    "page_slug": "news/2019-08-14-zelda-resource-packs-in-the-making",
    "publish": true,
    "title": "New Zelda resource packs are in the making."
  }