{
  "authors": [
    "Christopho"
  ],
  "categories": [
    "Solarus"
  ],
  "creation_date": "2001-04-08",
  "excerpt": "Ca faisait longtemps que nous ne vous donnions plus de nouvelles du jeu, et pourtant il est loin de tomber à l'abandon. Nous pensons avoir....",
  "id": "2001-04-08-scenario-devoile",
  "image_thumbnail": "../../../../../assets/blog/default_article_thumbnail.jpg",
  "page_override": {
    "meta_description": "",
    "meta_image": "../../../../../assets/images/meta_image_fallback.jpg",
    "meta_title": "Scénario dévoilé",
    "parent": "news",
    "slug": "news/2001-04-08-scenario-devoile",
    "title": "Scénario dévoilé"
  },
  "page_slug": "news/2001-04-08-scenario-devoile",
  "publish": true,
  "title": "Scénario dévoilé"
}