{
  "authors": [
    "Christopho"
  ],
  "categories": [
    "Solarus"
  ],
  "creation_date": "2007-04-01",
  "excerpt": "Cette nouvelle ne risque pas d'en surprendre plus d'un puisqu'en fait, beaucoup de rumeur courraient à ce sujet. En effet, il semblerait enfin que....",
  "id": "2007-04-01-zelda-et-link-pris-en-flag-par-les-paparazzii",
  "image_thumbnail": "../../../../../assets/blog/default_article_thumbnail.jpg",
  "page_override": {
    "meta_description": "",
    "meta_image": "../../../../../assets/images/meta_image_fallback.jpg",
    "meta_title": "Zelda et Link pris en flag par les paparazzii",
    "parent": "news",
    "slug": "news/2007-04-01-zelda-et-link-pris-en-flag-par-les-paparazzii",
    "title": "Zelda et Link pris en flag par les paparazzii"
  },
  "page_slug": "news/2007-04-01-zelda-et-link-pris-en-flag-par-les-paparazzii",
  "publish": true,
  "title": "Zelda et Link pris en flag par les paparazzii"
}