{
  "has_breadcrumb": true,
  "meta_description": "Journal des modifications du moteur de jeu Solarus.",
  "meta_image": "../../../assets/images/meta_image_fallback.jpg",
  "meta_title": "Journal des modifications",
  "parent": "solarus",
  "publish": true,
  "slug": "solarus/changelog",
  "title": "Journal des modifications"
}