{
  "authors": [
    "Christopho"
  ],
  "categories": [
    "Solarus"
  ],
  "creation_date": "2013-02-19",
  "excerpt": "The new Lua scripting API discussed in my previous post is making good progress!\r\n\r\nI have written the full documentation. The goal of the Solarus....",
  "id": "2013-02-19-solarus-lua-api-reference",
  "image_thumbnail": "../../../../../assets/blog/default_article_thumbnail.jpg",
  "page_override": {
    "meta_description": "",
    "meta_image": "../../../../../assets/images/meta_image_fallback.jpg",
    "meta_title": "Solarus Lua API reference",
    "parent": "news",
    "slug": "news/2013-02-19-solarus-lua-api-reference",
    "title": "Solarus Lua API reference"
  },
  "page_slug": "news/2013-02-19-solarus-lua-api-reference",
  "publish": true,
  "title": "Solarus Lua API reference"
}