{
  "excerpt": "Comment créer un sprite dans l'éditeur de sprite.",
  "id": "book-chapter-solarus-video-tutorial-basics-create-a-sprite",
  "index": 16,
  "origin_tree": "development/tutorials/solarus-video-tutorial",
  "page_override": {
    "meta_description": "Comment créer un sprite dans l'éditeur de sprite.",
    "meta_image": "../../../../book/tutorial/solarus-video-tutorial/images/thumbnail.png",
    "meta_title": "Comment créer un sprite",
    "parent": "development/tutorials/solarus-video-tutorial",
    "slug": "development/tutorials/solarus-video-tutorial/create-a-sprite",
    "title": "Comment créer un sprite"
  },
  "page_slug": "development/tutorials/solarus-video-tutorial/create-a-sprite",
  "publish": true,
  "title": "Comment créer un sprite"
}
