{
  "authors": [
    "Christopho"
  ],
  "categories": [
    "Solarus"
  ],
  "creation_date": "2002-04-18",
  "excerpt": "Vendredi 19 Avril -&gt; Vendredi 26 Avril !\n\nA sept jours de la sortie du jeu complet, nous sommes dans les derniers préparatifs. Netgamer doit....",
  "id": "2002-04-18-plus-qu-une-semaine",
  "image_thumbnail": "../../../../../assets/blog/default_article_thumbnail.jpg",
  "page_override": {
    "meta_description": "",
    "meta_image": "../../../../../assets/images/meta_image_fallback.jpg",
    "meta_title": "Plus qu'une semaine !",
    "parent": "news",
    "slug": "news/2002-04-18-plus-qu-une-semaine",
    "title": "Plus qu'une semaine !"
  },
  "page_slug": "news/2002-04-18-plus-qu-une-semaine",
  "publish": true,
  "title": "Plus qu'une semaine !"
}