{
  "excerpt": "Chapitre 03 de la solution de The Legend of Zelda: Mystery of Solarus DX.",
  "id": "book-chapter-the-legend-of-zelda-mystery-of-solarus-dx-walkthrough-03",
  "index": 3,
  "origin_tree": "games/the-legend-of-zelda-mystery-of-solarus-dx/walkthrough",
  "page_override": {
    "meta_description": "Chapitre 03 de la solution de The Legend of Zelda: Mystery of Solarus DX.",
    "meta_image": "../../../assets/images/meta_image_fallback.jpg",
    "meta_title": "Les caves Jumelles",
    "parent": "games/the-legend-of-zelda-mystery-of-solarus-dx/walkthrough",
    "slug": "games/the-legend-of-zelda-mystery-of-solarus-dx/walkthrough/03-twin-caves",
    "title": "Les caves Jumelles"
  },
  "page_slug": "games/the-legend-of-zelda-mystery-of-solarus-dx/walkthrough/03-twin-caves",
  "publish": true,
  "title": "Les caves Jumelles"
}
