{
  "age": "All publics",
  "authors": [
    "ZeldoRetro"
  ],
  "controls": [
    "keyboard",
    "gamepad"
  ],
  "downloads": [
    {
      "content": "downloads/any.md",
      "file": "https://github.com/ZeldoRetro/defi_zeldo_chap_1/releases/download/v1.1.1/defi_zeldo_chap_1.solarus",
      "label": ".solarus file",
      "platform": "any",
      "version": "1.1.1"
    }
  ],
  "excerpt": "Zeldo, a Creator, challenges Link in a dungeon he made... Will Link succeed in Zeldo's Challenge?",
  "icons": {
    "128x128": "icons/icon_128x128.png",
    "16x16": "icons/icon_16x16.png",
    "32x32": "icons/icon_32x32.png",
    "64x64": "icons/icon_64x64.png"
  },
  "id": "game-defi-de-zeldo-ch-1",
  "image_cover": "images/cover.jpg",
  "image_logo": "images/logo.png",
  "image_thumbnail": "images/thumbnail.png",
  "languages": [
    "English",
    "French"
  ],
  "licenses": [
    "GPL v3",
    "CC-BY-SA 4.0",
    "Proprietary (Fair use)"
  ],
  "medias": [
    {
      "image": "medias/screen_1.png",
      "thumbnail": "medias/screen_1.png",
      "type": "image"
    },
    {
      "image": "medias/screen_2.png",
      "thumbnail": "medias/screen_2.png",
      "type": "image"
    },
    {
      "image": "medias/screen_3.png",
      "thumbnail": "medias/screen_3.png",
      "type": "image"
    },
    {
      "image": "medias/screen_4.png",
      "thumbnail": "medias/screen_4.png",
      "type": "image"
    }
  ],
  "page_override": {
    "meta_description": "Zeldo, a Creator, challenges Link in a dungeon he made... Will Link succeed in Zeldo's Challenge?",
    "meta_image": "images/thumbnail.png",
    "meta_title": "Le Défi de Zeldo - Ch. 1 : La Revanche du Bingo",
    "slug": "games/defi-de-zeldo-ch-1",
    "title": "Le Défi de Zeldo - Ch. 1 : La Revanche du Bingo"
  },
  "page_slug": "games/defi-de-zeldo-ch-1",
  "players": 1,
  "publish": true,
  "release_date": "2019-05-10",
  "solarus_version": "1.6.x",
  "source_code": "https://github.com/ZeldoRetro/defi_zeldo_chap_1",
  "states": [
    "Released"
  ],
  "title": "Le Défi de Zeldo - Ch. 1 : La Revanche du Bingo",
  "types": [
    "Action-RPG", 
    "Adventure"
  ],
  "version": "1.1.1"
}
