{
  "authors": [
    "Christopho"
  ],
  "categories": [
    "Solarus"
  ],
  "creation_date": "2006-12-08",
  "excerpt": "On change tout ! Comme nous l'avions annoncé, voici le nouveau design tout beau tout neuf spécialement dédié à Twilight Princess qui sort....",
  "id": "2006-12-08-nouveau-design",
  "image_thumbnail": "../../../../../assets/blog/default_article_thumbnail.jpg",
  "page_override": {
    "meta_description": "",
    "meta_image": "../../../../../assets/images/meta_image_fallback.jpg",
    "meta_title": "Nouveau design !",
    "parent": "news",
    "slug": "news/2006-12-08-nouveau-design",
    "title": "Nouveau design !"
  },
  "page_slug": "news/2006-12-08-nouveau-design",
  "publish": true,
  "title": "Nouveau design !"
}