{
  "authors": [
    "Christopho"
  ],
  "categories": [
    "Solarus"
  ],
  "creation_date": "2005-08-31",
  "excerpt": "Ca faisait longtemps qu'on vous les promettait ! Et bien les voici, les artworks officiels du jeu The Legend Of Zelda : Mercuris' Chest ! J'ai opté....",
  "id": "2005-08-31-les-artworks-de-mercuris-chest-enfin-publies",
  "image_thumbnail": "../../../../../assets/blog/default_article_thumbnail.jpg",
  "page_override": {
    "meta_description": "",
    "meta_image": "../../../../../assets/images/meta_image_fallback.jpg",
    "meta_title": "Les artworks de Mercuris' Chest enfin publiés !",
    "parent": "news",
    "slug": "news/2005-08-31-les-artworks-de-mercuris-chest-enfin-publies",
    "title": "Les artworks de Mercuris' Chest enfin publiés !"
  },
  "page_slug": "news/2005-08-31-les-artworks-de-mercuris-chest-enfin-publies",
  "publish": true,
  "title": "Les artworks de Mercuris' Chest enfin publiés !"
}