{
  "authors": [
    "Christopho"
  ],
  "categories": [
    "Solarus"
  ],
  "creation_date": "2015-08-15",
  "excerpt": "Zelda : Return of the Hylian is now available in English!\r\n\r\nThe translation was imported from the original game that was already available in....",
  "id": "2015-08-15-zelda-return-of-the-hylian-in-english",
  "image_thumbnail": "../../../../../assets/blog/default_article_thumbnail.jpg",
  "page_override": {
    "meta_description": "",
    "meta_image": "../../../../../assets/images/meta_image_fallback.jpg",
    "meta_title": "Zelda Return of the Hylian in English",
    "parent": "news",
    "slug": "news/2015-08-15-zelda-return-of-the-hylian-in-english",
    "title": "Zelda Return of the Hylian in English"
  },
  "page_slug": "news/2015-08-15-zelda-return-of-the-hylian-in-english",
  "publish": true,
  "title": "Zelda Return of the Hylian in English"
}