{
  "authors": [
    "Christopho"
  ],
  "categories": [
    "Solarus"
  ],
  "creation_date": "2016-11-29",
  "excerpt": "A new bugfix release of Solarus, Solarus Quest Editor and of the Sample Quest was just published!A few annoying bugs were fixed.Additionally, we....",
  "id": "2016-11-29-bugfix-release-1-5-2-and-improved-sample-quest",
  "image_thumbnail": "../../../../../assets/blog/default_article_thumbnail.jpg",
  "page_override": {
    "meta_description": "",
    "meta_image": "../../../../../assets/images/meta_image_fallback.jpg",
    "meta_title": "Bugfix release 1.5.2 and improved sample quest!",
    "parent": "news",
    "slug": "news/2016-11-29-bugfix-release-1-5-2-and-improved-sample-quest",
    "title": "Bugfix release 1.5.2 and improved sample quest!"
  },
  "page_slug": "news/2016-11-29-bugfix-release-1-5-2-and-improved-sample-quest",
  "publish": true,
  "title": "Bugfix release 1.5.2 and improved sample quest!"
}