{
  "authors": [
    "Christopho"
  ],
  "categories": [
    "Solarus"
  ],
  "creation_date": "2010-12-18",
  "excerpt": "La démo du projet Zelda Mystery of Solarus DX est sortie il y a tout juste un an aujourd'hui. J'ai pensé que c'était l'occasion de vous donner des....",
  "id": "2010-12-18-zelda-solarus-dx-un-an-apres-la-demo",
  "image_thumbnail": "../../../../../assets/blog/default_article_thumbnail.jpg",
  "page_override": {
    "meta_description": "",
    "meta_image": "../../../../../assets/images/meta_image_fallback.jpg",
    "meta_title": "Zelda Solarus DX : un an après la démo",
    "parent": "news",
    "slug": "news/2010-12-18-zelda-solarus-dx-un-an-apres-la-demo",
    "title": "Zelda Solarus DX : un an après la démo"
  },
  "page_slug": "news/2010-12-18-zelda-solarus-dx-un-an-apres-la-demo",
  "publish": true,
  "title": "Zelda Solarus DX : un an après la démo"
}