{
  "authors": [
    "Christopho"
  ],
  "categories": [
    "Solarus"
  ],
  "creation_date": "2011-12-10",
  "excerpt": "The completed version of Zelda Mystery of Solarus DX will be available soon. Here is recent trailer showing a lot of game....",
  "id": "2011-12-10-zelda-mystery-of-solarus-dx-is-almost-finished",
  "image_thumbnail": "../../../../../assets/blog/default_article_thumbnail.jpg",
  "page_override": {
    "meta_description": "",
    "meta_image": "../../../../../assets/images/meta_image_fallback.jpg",
    "meta_title": "Zelda Mystery of Solarus DX is almost finished",
    "parent": "news",
    "slug": "news/2011-12-10-zelda-mystery-of-solarus-dx-is-almost-finished",
    "title": "Zelda Mystery of Solarus DX is almost finished"
  },
  "page_slug": "news/2011-12-10-zelda-mystery-of-solarus-dx-is-almost-finished",
  "publish": true,
  "title": "Zelda Mystery of Solarus DX is almost finished"
}