{
  "excerpt": "Presentation of the map editor, how to create and modify tiles, and the various shortcuts allowing to work more efficiently.",
  "id": "book-chapter-solarus-video-tutorial-basics-map-editor",
  "index": 3,
  "origin_tree": "development/tutorials/solarus-video-tutorial",
  "page_override": {
    "meta_description": "Presentation of the map editor, how to create and modify tiles, and the various shortcuts allowing to work more efficiently.",
    "meta_image": "../../../../book/tutorial/solarus-video-tutorial/images/thumbnail.png",
    "meta_title": "The Map Editor",
    "parent": "development/tutorials/solarus-video-tutorial",
    "slug": "development/tutorials/solarus-video-tutorial/map-editor",
    "title": "The Map Editor"
  },
  "page_slug": "development/tutorials/solarus-video-tutorial/map-editor",
  "publish": true,
  "title": "The Map Editor"
}
