{
  "excerpt": "How to build a bridge the hero can walk on or below.",
  "id": "book-chapter-solarus-video-tutorial-intermediate-bridge",
  "index": 37,
  "origin_tree": "development/tutorials/solarus-video-tutorial",
  "page_override": {
    "meta_description": "How to build a bridge the hero can walk on or below.",
    "meta_image": "../../../assets/images/meta_image_fallback.jpg",
    "meta_title": "How to make a bridge",
    "parent": "development/tutorials/solarus-video-tutorial",
    "slug": "development/tutorials/solarus-video-tutorial/bridge",
    "title": "How to make a bridge"
  },
  "page_slug": "development/tutorials/solarus-video-tutorial/bridge",
  "publish": true,
  "title": "How to make a bridge"
}
