{
  "has_breadcrumb": true,
  "meta_description": "Downloads for the Solarus game engine.",
  "meta_image": "../../../assets/images/meta_image_fallback.jpg",
  "meta_title": "Download",
  "parent": "solarus",
  "publish": true,
  "slug": "solarus/download",
  "title": "Download"
}