{
  "has_breadcrumb": true,
  "meta_description": "Overview of the Solarus game engine.",
  "meta_image": "../../../assets/images/meta_image_fallback.jpg",
  "meta_title": "Overview",
  "parent": "solarus",
  "publish": true,
  "slug": "solarus/overview",
  "title": "Overview"
}