{
  "authors": [
    "Christopho"
  ],
  "categories": [
    "Solarus"
  ],
  "creation_date": "2017-01-09",
  "excerpt": "Avant toute chose, toute l'équipe vous souhaite une bonne et heureuse année 2017 ! 2016 a été pour la communauté de création de jeux....",
  "id": "2017-01-09-une-bonne-resolution-pour-2017",
  "image_thumbnail": "../../../../../assets/blog/default_article_thumbnail.jpg",
  "page_override": {
    "meta_description": "",
    "meta_image": "../../../../../assets/images/meta_image_fallback.jpg",
    "meta_title": "Une bonne résolution pour 2017",
    "parent": "news",
    "slug": "news/2017-01-09-une-bonne-resolution-pour-2017",
    "title": "Une bonne résolution pour 2017"
  },
  "page_slug": "news/2017-01-09-une-bonne-resolution-pour-2017",
  "publish": true,
  "title": "Une bonne résolution pour 2017"
}