{
  "age": "All publics",
  "authors": [
    "Max Mraz"
  ],
  "controls": [
    "keyboard",
    "gamepad"
  ],
  "downloads": [
    {
      "content": "downloads/any.md",
      "file": "https://gitlab.com/maxmraz/yarntown/-/jobs/artifacts/v1.0.6/raw/yarntown-v1.0.6.solarus?job=quest-package",
      "label": ".solarus file",
      "platform": "any",
      "version": "1.0.6"
    }
  ],
  "excerpt": "Bloodborne meets 2D Zelda: cursed but cute.",
  "extras": [],
  "icons": {
    "128x128": "icons/icon_128x128.png",
    "16x16": "icons/icon_16x16.png",
    "32x32": "icons/icon_32x32.png",
    "64x64": "icons/icon_64x64.png"
  },
  "id": "game-yarntown",
  "image_cover": "images/cover.jpg",
  "image_logo": "images/logo.png",
  "image_logo_author": "../../../assets/authors/max_mraz.png",
  "image_thumbnail": "images/thumbnail.png",
  "languages": [
    "English",
    "Spanish",
    "Portuguese"
  ],
  "licenses": [
    "GPL v3",
    "Proprietary"
  ],
  "medias": [
    {
      "image": "medias/screen_1.png",
      "thumbnail": "medias/screen_1.png",
      "type": "image"
    },
    {
      "image": "medias/screen_2.png",
      "thumbnail": "medias/screen_2.png",
      "type": "image"
    },
    {
      "image": "medias/screen_3.png",
      "thumbnail": "medias/screen_3.png",
      "type": "image"
    },
    {
      "image": "medias/screen_4.png",
      "thumbnail": "medias/screen_4.png",
      "type": "image"
    }
  ],
  "page_override": {
    "meta_description": "Bloodborne meets 2D Zelda: cursed but cute.",
    "meta_image": "images/thumbnail.png",
    "meta_title": "Yarntown",
    "slug": "games/yarntown",
    "title": "Yarntown"
  },
  "page_slug": "games/yarntown",
  "players": 1,
  "publish": true,
  "release_date": "2020-07-18",
  "solarus_version": "1.6.4",
  "website": "https://maxatrillionator.itch.io/yarntown",
  "source_code": "https://gitlab.com/maxmraz/yarntown",
  "states": [
    "Released"
  ],
  "title": "Yarntown",
  "types": [
    "Souls-like",
    "Action-RPG"
  ],
  "version": "1.0.6"
}
