{
  "excerpt": "Comment créer un dialogue proposant au joueur de sauvegarder quand il met le jeu en pause.",
  "id": "book-chapter-solarus-video-tutorial-basics-save-the-game",
  "index": 9,
  "origin_tree": "development/tutorials/solarus-video-tutorial",
  "page_override": {
    "meta_description": "Comment créer un dialogue proposant au joueur de sauvegarder quand il met le jeu en pause.",
    "meta_image": "../../../../book/tutorial/solarus-video-tutorial/images/thumbnail.png",
    "meta_title": "La sauvegarde",
    "parent": "development/tutorials/solarus-video-tutorial",
    "slug": "development/tutorials/solarus-video-tutorial/save-the-game",
    "title": "La sauvegarde"
  },
  "page_slug": "development/tutorials/solarus-video-tutorial/save-the-game",
  "publish": true,
  "title": "La sauvegarde"
}
