{
  "authors": [
    "Christopho"
  ],
  "categories": [
    "Solarus"
  ],
  "creation_date": "2004-08-13",
  "excerpt": "Nous sommes en pleine période de vacances mais chez l'équipe ZS, le mot \"vacances\" n'a pas la même signification que pour ceux qui se dorent la....",
  "id": "2004-08-13-zelda-m-c-des-photos-du-jeu",
  "image_thumbnail": "../../../../../assets/blog/default_article_thumbnail.jpg",
  "page_override": {
    "meta_description": "",
    "meta_image": "../../../../../assets/images/meta_image_fallback.jpg",
    "meta_title": "Zelda M'C : des photos du jeu",
    "parent": "news",
    "slug": "news/2004-08-13-zelda-m-c-des-photos-du-jeu",
    "title": "Zelda M'C : des photos du jeu"
  },
  "page_slug": "news/2004-08-13-zelda-m-c-des-photos-du-jeu",
  "publish": true,
  "title": "Zelda M'C : des photos du jeu"
}