{
  "excerpt": "How to make a HUD (head-up display) to display information on the screen.",
  "id": "book-chapter-solarus-video-tutorial-basics-hud",
  "index": 33,
  "origin_tree": "development/tutorials/solarus-video-tutorial",
  "page_override": {
    "meta_description": "How to make a HUD (head-up display) to display information on the screen.",
    "meta_image": "../../../../book/tutorial/solarus-video-tutorial/images/thumbnail.png",
    "meta_title": "The HUD",
    "parent": "development/tutorials/solarus-video-tutorial",
    "slug": "development/tutorials/solarus-video-tutorial/hud",
    "title": "The HUD"
  },
  "page_slug": "development/tutorials/solarus-video-tutorial/hud",
  "publish": true,
  "title": "The HUD"
}
