{
  "age": "Tous publics",
  "authors": [
    "ZeldoRetro"
  ],
  "controls": [
    "keyboard",
    "gamepad"
  ],
  "downloads": [
    {
      "content": "downloads/any.md",
      "file": "http://www.mediafire.com/file/10l1lfvr2pzx3b4/defi_zeldo_chap_2.solarus/file",
      "label": ".solarus file",
      "platform": "any",
      "version": "1.0"
    }
  ],
  "excerpt": "Après sa victoire face au 1er Défi de Zeldo, Link se retrouve transporté en Haïroule où l'attend Zeldo au sommet de la Tour des Souvenirs pour sa revanche!",
  "icons": {
    "128x128": "icons/icon_128x128.png",
    "16x16": "icons/icon_16x16.png",
    "32x32": "icons/icon_32x32.png",
    "64x64": "icons/icon_64x64.png"
  },
  "id": "game-defi-de-zeldo-ch-2",
  "image_cover": "images/cover.jpg",
  "image_logo": "images/logo.png",
  "image_thumbnail": "images/thumbnail.png",
  "languages": [
    "Anglais",
    "Français"
  ],
  "licenses": [
    "GPL v3",
    "CC-BY-SA 4.0",
    "Propriétaire (usage raisonnable)"
  ],
  "medias": [
    {
      "image": "medias/screen_1.png",
      "thumbnail": "medias/screen_1.png",
      "type": "image"
    },
    {
      "image": "medias/screen_2.png",
      "thumbnail": "medias/screen_2.png",
      "type": "image"
    },
    {
      "image": "medias/screen_3.png",
      "thumbnail": "medias/screen_3.png",
      "type": "image"
    },
    {
      "image": "medias/screen_4.png",
      "thumbnail": "medias/screen_4.png",
      "type": "image"
    },
	    {
      "image": "medias/screen_5.png",
      "thumbnail": "medias/screen_5.png",
      "type": "image"
    },
	    {
      "image": "medias/screen_6.png",
      "thumbnail": "medias/screen_6.png",
      "type": "image"
    },
	    {
      "image": "medias/screen_7.png",
      "thumbnail": "medias/screen_7.png",
      "type": "image"
    },
	    {
      "image": "medias/screen_8.png",
      "thumbnail": "medias/screen_8.png",
      "type": "image"
    },
	    {
      "image": "medias/screen_9.png",
      "thumbnail": "medias/screen_9.png",
      "type": "image"
    },
	    {
      "image": "medias/screen_10.png",
      "thumbnail": "medias/screen_10.png",
      "type": "image"
    },
	    {
      "image": "medias/screen_11.png",
      "thumbnail": "medias/screen_11.png",
      "type": "image"
    },
	    {
      "image": "medias/screen_12.png",
      "thumbnail": "medias/screen_12.png",
      "type": "image"
    }
  ],
  "page_override": {
    "meta_description": "Après sa victoire face au 1er Défi de Zeldo, Link se retrouve transporté en Haïroule où l'attend Zeldo au sommet de la Tour des Souvenirs pour sa revanche!",
    "meta_image": "images/thumbnail.png",
    "meta_title": "Le Défi de Zeldo - Ch. 2 : La Tour des Souvenirs",
    "slug": "games/defi-de-zeldo-ch-2",
    "title": "Le Défi de Zeldo - Ch. 2 : La Tour des Souvenirs"
  },
  "page_slug": "games/defi-de-zeldo-ch-2",
  "players": 1,
  "publish": true,
  "release_date": "2019-05-10",
  "solarus_version": "1.6.x",
  "source_code": "https://github.com/ZeldoRetro/defi_zeldo_chap_2",
  "states": [
    "Publié"
  ],
  "title": "Le Défi de Zeldo - Ch. 2 : La Tour des Souvenirs",
  "types": [
    "Action-RPG",
    "Aventure"
  ],
  "version": "1.0"
}
