{
  "authors": [
    "Christopho"
  ],
  "categories": [
    "Solarus"
  ],
  "creation_date": "2002-03-05",
  "excerpt": "Salut à tous !\n\nLa programmation est de plus en plus compliquée à effectuer, car j'avoue que Netgamer me donne du fil à retordre avec les....",
  "id": "2002-03-05-l-avancement-de-la-programmation",
  "image_thumbnail": "../../../../../assets/blog/default_article_thumbnail.jpg",
  "page_override": {
    "meta_description": "",
    "meta_image": "../../../../../assets/images/meta_image_fallback.jpg",
    "meta_title": "L'avancement de la programmation",
    "parent": "news",
    "slug": "news/2002-03-05-l-avancement-de-la-programmation",
    "title": "L'avancement de la programmation"
  },
  "page_slug": "news/2002-03-05-l-avancement-de-la-programmation",
  "publish": true,
  "title": "L'avancement de la programmation"
}